[
    {
        "id": 1,
        "libelle": "Court 1",
        "couvert": false,
        "reservable": true,
        "localisation_court": "CPE",
        "type_court": {
            "id_court": 1,
            "libelle_type_court": "Terre battue"
        }
    },{
        "id": 2,
        "libelle": "Court 1",
        "couvert": true,
        "reservable": true,
        "localisation_court": "CPE",
        "type_court": {
            "id_court": 1,
            "libelle_type_court": "Terre battue"
        }
    },{
        "id": 3,
        "libelle": "Court 1",
        "couvert": true,
        "reservable": true,
        "localisation_court": "CPE",
        "type_court": {
            "id_court": 1,
            "libelle_type_court": "Terre battue"
        }
    },{
        "id": 4,
        "libelle": "Court 1",
        "couvert": true,
        "reservable": true,
        "localisation_court": "CPE",
        "type_court": {
            "id_court": 1,
            "libelle_type_court": "Terre battue"
        }
    }
]